dotaz,zvolena_akce,vybrana_akce,vysvetleni_uzivatele
"Kdybych si chtěl koupit auto, jaká by byla možná výše půjčky?",Chci půjčit/kolik mi půjčíte,,
Kolik si mohu pujcit na dům?,Chci půjčit/kolik mi půjčíte,,
Kolik si mohu půjčit?,Chci půjčit/kolik mi půjčíte,,
Kolik si mohu zažádat na úvěr,Chci půjčit/kolik mi půjčíte,,
Potřebuji půjčit do výplaty,Chci půjčit/kolik mi půjčíte,,
Půjčka 1200 000 Kč na auto,Chci půjčit/kolik mi půjčíte,,
Půjčka 1200 000 na auto,Chci půjčit/kolik mi půjčíte,,
"Toš, jak velký peníze si můžu půjčit?",Chci půjčit/kolik mi půjčíte,,
chci půjčku,Chci půjčit/kolik mi půjčíte,,
chci si půjčit peníze,Chci půjčit/kolik mi půjčíte,,
da se vypocitat kolik teoreticky bych dostal uver?,Chci půjčit/kolik mi půjčíte,,
jakou půjčku mohu dostat,Chci půjčit/kolik mi půjčíte,,
kolik si můžu půjčit?,Chci půjčit/kolik mi půjčíte,,
mohu dostat půjčku?,Chci půjčit/kolik mi půjčíte,,
možnost půjčky,Chci půjčit/kolik mi půjčíte,,
mám dotaz na sjednání půjčky,Chci půjčit/kolik mi půjčíte,,
mám nárok na půjčku?,Chci půjčit/kolik mi půjčíte,,
neúčelová půjčka výše,Chci půjčit/kolik mi půjčíte,,
potřebuji půjčku,Chci půjčit/kolik mi půjčíte,,
sjednat půjčku online,Chci půjčit/kolik mi půjčíte,,
úvěrové možnosti,Chci půjčit/kolik mi půjčíte,,
Vytvořit šablonu pro platbu,,,vytvoreni sablony
Chci poslat 299€ na účet 9876543210/1234,Jednorázová platba tuzemská,,
Nová platba dle šablony,Jednorázová platba tuzemská,,
Platba 150 kč na účet 117242/0300,Jednorázová platba tuzemská,,
Poslat 1500 na spořák,Jednorázová platba tuzemská,,
Poslat 200 Kč přes QR kód.,Jednorázová platba tuzemská,,
Poslat peníze,Jednorázová platba tuzemská,,
Pošli 10 000 na spořící účet.,Jednorázová platba tuzemská,,
Pošli 100 Kč mámě!,Jednorázová platba tuzemská,,
"Pošli 1234,- Veronice.",Jednorázová platba tuzemská,,
Pošli 158 korun na 12-456456456/8080,Jednorázová platba tuzemská,,
"Prosím, 200 za oběd Petrovi Novákovi.",Jednorázová platba tuzemská,,
Přesuň 10 000 na spořící účet.,Jednorázová platba tuzemská,,
Převeď 10k na spořící účet.,Jednorázová platba tuzemská,,
Převeď 1584 korun na spořící účet,Jednorázová platba tuzemská,,
Převeď z běžného účtu 1584 korun na spořící účet,Jednorázová platba tuzemská,,
Převod 5000 na účet 1234,Jednorázová platba tuzemská,,
Toš zaplať 100 za večeři bratrovi.,Jednorázová platba tuzemská,,
Zaplait 500 matce.,Jednorázová platba tuzemská,,
Zaplatit 20000 Petr Novák,Jednorázová platba tuzemská,,
Zaplatit 500 kč matce.,Jednorázová platba tuzemská,,
Zaplatit 500 matce.,Jednorázová platba tuzemská,,
Zaplatit plyn,Jednorázová platba tuzemská,,
chci poslat penize maminke,Jednorázová platba tuzemská,,
chci zadat jednorazovy bankovni prikaz,Jednorázová platba tuzemská,,
chci zaplatit fakturu,Jednorázová platba tuzemská,,
chci zaslat peníze na tuzemák,Jednorázová platba tuzemská,,
dluh Martinovi za večeři,Jednorázová platba tuzemská,,
nová platba,Jednorázová platba tuzemská,,
platba,Jednorázová platba tuzemská,,
poslat 100 kč,Jednorázová platba tuzemská,,
poslat 20 korun matce,Jednorázová platba tuzemská,,
poslat 20 korun na muj sporici ucet,Jednorázová platba tuzemská,,
poslat 200 korun matce na 12345678/2010,Jednorázová platba tuzemská,,
poslat 200 matce,Jednorázová platba tuzemská,,
poslat 2000,Jednorázová platba tuzemská,,
poslat 300 matce,Jednorázová platba tuzemská,,
poslat 500 matce,Jednorázová platba tuzemská,,
poslat 500 matce.,Jednorázová platba tuzemská,,
poslat nejaky prachy nekam,Jednorázová platba tuzemská,,
poslat penize,Jednorázová platba tuzemská,,
poslat prachy matce,Jednorázová platba tuzemská,,
poslat známému peníze,Jednorázová platba tuzemská,,
pošli 300 na účet 154232323/0800,Jednorázová platba tuzemská,,
pošli 375 na účet,Jednorázová platba tuzemská,,
pošli tři tisíce Jirkovi,Jednorázová platba tuzemská,,
prikaz na uhradu,Jednorázová platba tuzemská,,
převod peněz mezi účty,Jednorázová platba tuzemská,,
"zadat platbu 100 kč na účet 167559324/0300 se zprávou ""Splátka půjčky""",Jednorázová platba tuzemská,,
"zadat platbu 12000 na účet 167559324/0300 se zprávou ""servis Peugeot""",Jednorázová platba tuzemská,,
zadej platbu,Jednorázová platba tuzemská,,
zaplatit fakturu,Jednorázová platba tuzemská,,
zaplatit podle šablony,Jednorázová platba tuzemská,,
zaplatit ségře 30 korun,Jednorázová platba tuzemská,,
zaplatit televize,Jednorázová platba tuzemská,,
zaptatit 1250 plyn,Jednorázová platba tuzemská,,
zaslat 500 korun na ucet 12e123/132e3,Jednorázová platba tuzemská,,
úhrada faktury,Jednorázová platba tuzemská,,
DO KDY MIMOŘÁDNÁ SPLÁTKA,Potřebuji mimořádnou splátku (hypotéky),,
"Potřebuji splátku hypotéky, TEĎ!",Potřebuji mimořádnou splátku (hypotéky),,
chci mimoradnou splatku kreditky,Potřebuji mimořádnou splátku (hypotéky),,
jaká je možnost mimořádní splátky hypo?,Potřebuji mimořádnou splátku (hypotéky),,
kdy muzu pozadat o mimoradnou splatku,Potřebuji mimořádnou splátku (hypotéky),,
předčasné splacení dluhu,Potřebuji mimořádnou splátku (hypotéky),,
"mám nějaké peníze nazvyš, mohu je dát do splátky hypotéky?",Potřebuji mimořádnou splátku (hypotéky),,
můžu ztratit peníze na splátku,Potřebuji mimořádnou splátku (hypotéky),,
neplánovaně přesuň peníze na splátku hypo,Potřebuji mimořádnou splátku (hypotéky),,
"vím, že není termín pro splátku ale mám peníze nazvyš",Potřebuji mimořádnou splátku (hypotéky),,
jaký je poplatek pro mimořádnou splátku?,Potřebuji mimořádnou splátku (hypotéky),,
Chci potvrzení o poslední platbě,Potřebuji potvrzení o platbě,,
"Chci potvrzení, že jsem poslal peníze",Potřebuji potvrzení o platbě,,
Prosím potvrzení o platbě.,Potřebuji potvrzení o platbě,,
chci potvrzení o platbě ze dne 20.1.2021,Potřebuji potvrzení o platbě,,
chci potvzení o platbě,Potřebuji potvrzení o platbě,,
potvrzení o zaplacení na mail,Potřebuji potvrzení o platbě,,
zaslat potvrzení o platbě,Potřebuji potvrzení o platbě,,
kdy muzu prijit vykradnout banku? :),Sjednat schůzku na pobočce,,easter egg
Chci jít na nejbližší pobočku.,Sjednat schůzku na pobočce,,
Chci se potkat na pobočce,Sjednat schůzku na pobočce,,
"Hej Siri, domluv mi schúzku s tou vaši bankéřkou.",Sjednat schůzku na pobočce,,
Jak sjednat schůzku s bankéřem?,Sjednat schůzku na pobočce,,
Kde je nejbližší pobočka pro schůzku s hypotéčním specialistou?,Sjednat schůzku na pobočce,,
Nejbližší pobočka,Sjednat schůzku na pobočce,,
Podepsání smlouvy schůzka!,Sjednat schůzku na pobočce,,
Potřeboval bych sjednat hypotéku.,Sjednat schůzku na pobočce,,
Potřebuju na pobočku.,Sjednat schůzku na pobočce,,
Schůzka na Andělu?,Sjednat schůzku na pobočce,,
chci přijít na pobočku,Sjednat schůzku na pobočce,,
chci sjednat schůzku,Sjednat schůzku na pobočce,,
dá se objednat termín u vás?,Sjednat schůzku na pobočce,,
kde je nejbližší pobočka od mého bydliště?,Sjednat schůzku na pobočce,,
najdi mi najblizsiu pobocku,Sjednat schůzku na pobočce,,
nejbližší pobočky,Sjednat schůzku na pobočce,,
návštěva osobního bankéře,Sjednat schůzku na pobočce,,
schůzka s bankéřem,Sjednat schůzku na pobočce,,
sjednat schuzku v bance,Sjednat schůzku na pobočce,,
sjednat schuzku v nejvblizsi poboccce,Sjednat schůzku na pobočce,,
sjednat schůzku,Sjednat schůzku na pobočce,,
termín osobní schůzky,Sjednat schůzku na pobočce,,
Chci splatit kreditní kartu,Splátka kreditní karty,,
Chci zaplatit za kreditní kartu,Splátka kreditní karty,,
Doplň kreditku.,Splátka kreditní karty,,
Splatit kreditku!,Splátka kreditní karty,,
Zaplat kreditku.,Splátka kreditní karty,,
Zaplatit kreditku,Splátka kreditní karty,,
Zaplať kreditku.,Splátka kreditní karty,,
jak odložit splátku na kartě?,Splátka kreditní karty,,
jaká je výše splátky na mé kreditce?,Splátka kreditní karty,,
potrebuju navysit kreditku,Splátka kreditní karty,,
proveď splátku kreditky 4000 Kč,Splátka kreditní karty,,
splacanie kreditnej karty,Splátka kreditní karty,,
splatit kreditku v plne vysi,Splátka kreditní karty,,
splácení kreditní karty,Splátka kreditní karty,,
splátka kreditky 5000 czk,Splátka kreditní karty,,
splátka úvěru kreditky,Splátka kreditní karty,,
stav kreditní karty,Splátka kreditní karty,,
zaplatit kreditku,Splátka kreditní karty,,
Běžné měsiční inkaso,Svolení k inkasu a SIPO,,
Běžné čtvrtletní inkaso,Svolení k inkasu a SIPO,,
Nastavit souhlas se strháváním peněz,Svolení k inkasu a SIPO,,
Povolit měsiční INKASO na účet 117292/0300 častka 400,Svolení k inkasu a SIPO,,
Zaplatit inkaso.,Svolení k inkasu a SIPO,,
Zařídit inkaso.,Svolení k inkasu a SIPO,,
"Zvyš na 2000 vodu, plyn a elektřinu.",Svolení k inkasu a SIPO,,
chci udělat inkaso,Svolení k inkasu a SIPO,,
chci zadat inkaso,Svolení k inkasu a SIPO,,
jak nastavim povoleni k inkasu?,Svolení k inkasu a SIPO,,
jak nastavím povolení k automatické platbě?,Svolení k inkasu a SIPO,,
jaký je rozdíl mezi inkasem a SIPO?,Svolení k inkasu a SIPO,,
mobil inkaso,Svolení k inkasu a SIPO,,
nastav inkaso,Svolení k inkasu a SIPO,,
povolení k inkasu,Svolení k inkasu a SIPO,,
povolit sipo,Svolení k inkasu a SIPO,,
zadat inkaso,Svolení k inkasu a SIPO,,
zadej sipo platbu,Svolení k inkasu a SIPO,,
zrušit inkaso,Svolení k inkasu a SIPO,,
Seznam trvalých příkazú prosím.,Trvalé platby,,vypisy
Chci zadat trvalou platbu 15kč na účet 9999999999/1234.,Trvalé platby,,
Co se mi strhne z účtu?,Trvalé platby,,
Internet 700 každý měsíc! ,Trvalé platby,,
Jaká je suma mých měsíčních trvalých příkazů?,Trvalé platby,,
Měsíční platba 15000 na účet 01245/0800,Trvalé platby,,
"Měsíční platba za internet 800, prosím.",Trvalé platby,,
Naplanuj měsiční platbu 500 kč na účet 117292/0300,Trvalé platby,,
Naplanuj platbu 400 kč na účet 117292/0300,Trvalé platby,,
"Potřebuji zadat platbu, která bude splatná vždy do 15. dne v měsíci po dobu jednoho roku",Trvalé platby,,
Trvalý příkaz 100kč na 123456789/0100 každé první pondělí v měsíci do konce roku 2021,Trvalé platby,,
Zobraz trvalé platby.,Trvalé platby,,
Zrušit trvalý příkaz ,Trvalé platby,,
chci nastavit opakujujici se platbu,Trvalé platby,,
chci si zadat trvalý příkaz,Trvalé platby,,
nastavit trvalou platbu za elektřinu,Trvalé platby,,
potrebuju nastavit trvaly prikaz,Trvalé platby,,
potřebuju jednorázově změnit jeden trvalý příkaz,Trvalé platby,,
trvaly prikaz,Trvalé platby,,
vytvořit trvalý příkaz,Trvalé platby,,
zadat trvalou platbu dceře 8000 korun,Trvalé platby,,
změna trvalého příkaazu,Trvalé platby,,
změň sumu pravidelné platby,Trvalé platby,,
zobraz výpis trvalých plateb,Trvalé platby,,
zrušit pravideůnou platbu,Trvalé platby,,
Disponiblini zůstatek,Výpisy,,
Kolik jsem utratila minulý měsíc?,Výpisy,,
Kolik mám na účtě?,Výpisy,,
Prosím o výpis z účtu.,Výpisy,,
Výpis splatek krerditky,Výpisy,,
Výpis zůstatku z účtu číslo 2,Výpisy,,
Zobrazit výplatu,Výpisy,,
Zustatek na účtu,Výpisy,,
elektrinický výpis,Výpisy,,
jak získám seznam pohybů na účtě za minulý měsíc?,Výpisy,,
jaký je zůstatek na BÚ?,Výpisy,,
jaký mám zůstatek na spořícím účtě?,Výpisy,,
jaký mám zůstatek na účtu?,Výpisy,,
jaký mám zůstatek na účtě?,Výpisy,,
kolik jsem zaplatil minulý měsíc?,Výpisy,,
kolik mi přišlo minulý měsíc?,Výpisy,,
online výpis z účtu,Výpisy,,
otevři seznam výpisů,Výpisy,,
pohyby na účtu,Výpisy,,
poslední pohyby,Výpisy,,
vypis uctu,Výpisy,,
vypis uctu.,Výpisy,,
vzpis splatek kreditkz,Výpisy,,
výpis,Výpisy,,
výpis z účtu za poslední tři měsíce,Výpisy,,
výpis za leden,Výpisy,,
výpis účtu,Výpisy,,
zůstatek na účtu,Výpisy,,
Asi mi bila odcizena karta,Ztratil jsem platební kartu,,
Kde mám kartu?,Ztratil jsem platební kartu,,
Krádež karty.,Ztratil jsem platební kartu,,
"Nemám kartu, asi jsem ji stratil.",Ztratil jsem platební kartu,,
Ukradli mi kartu!,Ztratil jsem platební kartu,,
Ztratil jsem platební kartu,Ztratil jsem platební kartu,,
Ztratil jsem telefon s Google Pay,Ztratil jsem platební kartu,,
co delat kdyz ztratim bankomatovou,Ztratil jsem platební kartu,,
co dělat když mi ukradli kartu?,Ztratil jsem platební kartu,,
co kdyz nevim najit kartu,Ztratil jsem platební kartu,,
jak postupovat při ztrátě platební karty?,Ztratil jsem platební kartu,,
jak vystavit nahradni kartu,Ztratil jsem platební kartu,,
ukradli mi platebni kartu,Ztratil jsem platební kartu,,
zablokovat kartu,Ztratil jsem platební kartu,,
ztracená kreditka,Ztratil jsem platební kartu,,
ztráta karty,Ztratil jsem platební kartu,,
ztráta platební karty,Ztratil jsem platební kartu,,
Jaké platby mám zadané k úhradě?,Čekající platby,,
Všechny platby proběhly?,Čekající platby,,
Za co jsem dnes platil,Čekající platby,,
Zobraz mi zadané platby které čekají na úhradu,Čekající platby,,
blokováno,Čekající platby,,
jake mam cekajici platby,Čekající platby,,
jaké mám čekají platby?,Čekající platby,,
kolik mám do konce měsíce naplánovaných výdavků?,Čekající platby,,
mam nejakou nezrealizovanou platbu?,Čekající platby,,
mám nějaké naplánované platby?,Čekající platby,,
platby ve frontě,Čekající platby,,
zablokovane platby,Čekající platby,,
chci sjednat pujcku,,Chci půjčit/kolik mi půjčíte,chci pujcku
Povolit kontokorent,,Chci půjčit/kolik mi půjčíte,kontokorent
dej mi peníze,,Chci půjčit/kolik mi půjčíte,nedam
Chtěl bych půjčit 50000 kč,,Chci půjčit/kolik mi půjčíte,
Chtěl bych půčit 50000 kč,,Chci půjčit/kolik mi půjčíte,
Chtěl bych si vzít úvěr.,,Chci půjčit/kolik mi půjčíte,
Chtěla bych půčit 000 kč,,Chci půjčit/kolik mi půjčíte,
Jak velký peníze si můžu půjčit?,,Chci půjčit/kolik mi půjčíte,
"Jsem nezaměstnaný, mohu si vypůčit?",,Chci půjčit/kolik mi půjčíte,
"Kdybych si chtěl koupit auto, jak jsem býval chtěl před rokem. Na kolik mě můžete založit?",,Chci půjčit/kolik mi půjčíte,
"Maximální úvěr s splátkou do 3500,-",,Chci půjčit/kolik mi půjčíte,
Potřebuji peníze,,Chci půjčit/kolik mi půjčíte,
Potřebuji založit na novou TV. ,,Chci půjčit/kolik mi půjčíte,
Potřebuju pujčit 120 korun na mléko a sejra.,,Chci půjčit/kolik mi půjčíte,
"Půjčka 1,2M na auto",,Chci půjčit/kolik mi půjčíte,
Půjčka 1200k Kč na auto,,Chci půjčit/kolik mi půjčíte,
Půjčka 1200k na auto.,,Chci půjčit/kolik mi půjčíte,
chci pujcku,,Chci půjčit/kolik mi půjčíte,
dá se zde půjčit 5000 korun?,,Chci půjčit/kolik mi půjčíte,
jak velký úvěr mi poskytnete?,,Chci půjčit/kolik mi půjčíte,
max výše spotřebitelského úvěru,,Chci půjčit/kolik mi půjčíte,
potrebuji pucku,,Chci půjčit/kolik mi půjčíte,
potřebuji půjčit 10000,,Chci půjčit/kolik mi půjčíte,
sjednat úvěr,,Chci půjčit/kolik mi půjčíte,
spotřebák - jak na to?,,Chci půjčit/kolik mi půjčíte,
úvěr,,Chci půjčit/kolik mi půjčíte,
Zahraniční platby,,,Jednorázová platba zahraniční
chci poslat zahraniční platbu,,,Jednorázová platba zahraniční
platba do zahraničí,,,Jednorázová platba zahraniční
zahraniční platba,,,Jednorázová platba zahraniční
zaplatit mobil,,Jednorázová platba tuzemská,mobilní služby
nová platba dle uložených vzorů,,Jednorázová platba tuzemská,"očekávala jsem nabídku vzorů k úhradě, ale jednorázová platba asi ok"
poslat 500 mame,,Jednorázová platba tuzemská,
poslat nejaky prachy,,Jednorázová platba tuzemská,
převod peněz mezi bankami,,Jednorázová platba tuzemská,
"zadat platbu 100 kč na účet 167559324/0300 se zprávou """"Splátka půjčky""""",,Jednorázová platba tuzemská,
Jaký mám limit na kartě?,,Limity,Limity na kartě
Nastavení dočasných limitů,,Limity,Nastavení limitů na kartě
jak si zmenim limit na karte?,,Limity,Nastavení limitů na kartě
jaký limit mám na platební kartě?,,Limity,Nastavení limitů na kartě
kolik mám maximálně povolený výběr z bankomatu?,,Limity,Nastavení limitů na kartě
můžu změnit maximální limit na platbu kartou?,,Limity,Nastavení limitů na kartě
navýšení limitu pro platbu kartou,,Limity,Nastavení limitů na kartě
potřebuji změnit limit na platební kartě na nákupy online,,Limity,Nastavení limitů na kartě
zvedni v73i limitu v7b2ru z bankomatu,,Limity,Nastavení limitů na kartě
zvedni výši limitu výběru z bankomatu,,Limity,Nastavení limitů na kartě
Kolik zbývá do limitu na kreditní kartě? ,,Limity,"očekávala jsem pohyby na účtě kreditní karty, abych zjitila, kolik ještě mohu v daném období utratit"
Kolik ještě můžu do konce měsíce utratit?,,Limity,
Kde si mohu změnit limity na platební kartě?,,Limity,
Jaký mám limit pro výběr z bankomatu?,,Limity,
Kolik mohu utratit do konce měsíce?,,Limity,
kolik můžu utrácet tenhle měsíc,,Limity,
zvedni mi limit na platby,,Limity,
pro tenhle měsíc chci vyšší limit na kartě,,Limity,
jaky mam pin?,,,PIN
neviem pin ku karte,,,PIN
zobrazit pin platební karty,,,PIN
ztratil jsem pin kod,,,PIN
"Mám peníze navíc, co s nimi můžu udělat?",,Potřebuji mimořádnou splátku (hypotéky),spořící účet; investice
Dej přebytek na hypotéku.,,Potřebuji mimořádnou splátku (hypotéky),
Mohu zaplatit výjimečně vyšší částku než mám sjednanou ve splátkovém kalendáři?,,Potřebuji mimořádnou splátku (hypotéky),
"Zaplať 250´000,- na hypotéku",,Potřebuji mimořádnou splátku (hypotéky),
Doklad pro zaplacení servisu.,,Potřebuji potvrzení o platbě,
"Franta říká, že ty peníze ješte nedostal.",,Potřebuji potvrzení o platbě,
Potvrzení o splátce hypotéky,,Potřebuji potvrzení o platbě,
Proběhla platba do alzy? ,,Potřebuji potvrzení o platbě,
chci doklad o provedené transakci,,Potřebuji potvrzení o platbě,
chci dostat doklad o platbe,,Potřebuji potvrzení o platbě,
chci formalni doklad o transakci,,Potřebuji potvrzení o platbě,
co slouží jako doklad o provedene platbě?,,Potřebuji potvrzení o platbě,
potřebuji doklad o provedené platbě,,Potřebuji potvrzení o platbě,
stvrzenka,,Potřebuji potvrzení o platbě,
úroková sazba,,Sjednat Hypotéku,chci hypoteku
jakou úrokovou sazbu dostanu u hypotéky na 10 milionů,,Sjednat Hypotéku,nepřečetl částku napsanou číslem a slovem / neodpověděl na otázku
kolik je úroková sazba?,,Sjednat Hypotéku,uroky
Chci hypotéku.,,Sjednat Hypotéku,
Jakou dostanu hypoteční sazbu?,,Sjednat Hypotéku,
chci hypotéku,,Sjednat Hypotéku,
sjednat hypoteku,,Sjednat Hypotéku,
výše hypotéky,,Sjednat Hypotéku,
Chtěl bych si půjčit a založit dům,,Sjednat Hypotéku,
Jaké máte úrokové sazby na hypo?,,Sjednat Hypotéku,
Můžu mít slevu na hypotéku jako student?,,Sjednat Hypotéku,
Chtel bych si půjčit na nový byt,,Sjednat Hypotéku,
"Chci bydlet ve vlastním, ale nemám na to peníze.",,Sjednat Hypotéku,
Chci bydlet ve vlastním bytě,,Sjednat Hypotéku,
bankovní poradce,,Sjednat schůzku na pobočce,Kdo je můj bankovní poradce?
Otvírací doba na Národní třídě? ,,Sjednat schůzku na pobočce,oteviraci doba
Chci se sejít s bankéřem.,,Sjednat schůzku na pobočce,
Potřeboval bych se sejít ohledně hypotéky.,,Sjednat schůzku na pobočce,
Umíte mi naplánovat termín osobního setkání?,,Sjednat schůzku na pobočce,
chci osobní střetnutí,,Sjednat schůzku na pobočce,
chci prijit osobne,,Sjednat schůzku na pobočce,
domluvit meeting,,Sjednat schůzku na pobočce,
domluvit termín s bankéřem,,Sjednat schůzku na pobočce,
je možné probrat něco osobně?,,Sjednat schůzku na pobočce,
rezervace,,Sjednat schůzku na pobočce,
zrušení inkasních plateb,,Svolení k inkasu a SIPO,
"Platby nad 500,- v příštích 14 dnech",,Trvalé platby,Dotaz na budoucí (trvalé) platby v příštích dvou týdnech
Kdy odejde splátka hypotéky?,,Trvalé platby,Dotaz na termín budoucí trvalé platby
Zaplatit nájem,,Trvalé platby,Jednorázová platba tuzemská
Počet zbývajících splátek hypotéky.,,Trvalé platby,Kolik ještě splátek mě čeká?
seznam travlych prikazu,,Trvalé platby,Trvalé platby/vypis trvalych platieb
Chci přeposílat 500 korun na svůj spořicí účet každý mesíc od 5.2.2021.,,Trvalé platby,
Nájem 6000 na účet paní domácí.,,Trvalé platby,
Kdy odešla splátka hypotéky?,,Výpisy,Dotaz na provedenou platbu
"Platby nad 500,- v minulých 14 dnech",,Výpisy,Dotaz na provedené platby (nejen trvalé).
příchozí platby,,Výpisy,Výpis příchozích plateb
Jak jsou na tom moje výdaje?,,Výpisy,"Zobrazit, kolik jsem utratil poslední měsíc"
přeplatky,,Výpisy,"asi těžko identifikovat co je přeplatek / nedoplatek, ale mělo by to vést k výpisům"
historie plateb nad 10 000,,Výpisy,filtr na výpisy
potřebuji zkontrolovat příchozí platby,,Výpisy,nebo pohyby na účtě
platby kartou za minulý měsíc,,Výpisy,výpis plateb kreditní kartou
Kolik je zústatek na účtech?,,Výpisy,
Kolik jsem včera utratil?,,Výpisy,
Najdi domácí platby za minulý týden.,,Výpisy,
Odchozí platby,,Výpisy,
Toš kolik jsem zaplatil za leden.,,Výpisy,
Výše posledních třech inkas,,Výpisy,
chci zobrazit všechny měsíční kredity,,Výpisy,
historie,,Výpisy,
historie plateb,,Výpisy,
jak si zobrazím výdaje větší než 3000 korun?,,Výpisy,
jake platby jsem uskutecnila v breznu?,,Výpisy,
jaky mam zustatek,,Výpisy,
jaké jsou mé příjmy za rok?,,Výpisy,
kolik mám naspořeno?,,Výpisy,
odchozí transakce posl měsíc,,Výpisy,
posledních 20 plateb Veronice,,Výpisy,
přijaté platby leden,,Výpisy,
seznam plateb,,Výpisy,
seznam transakcí,,Výpisy,
ukaz poslednich 10 plateb,,Výpisy,
zobraz vsechny transakce za posledni 3 mesice,,Výpisy,
Nechal jsem peněženku ve vlaku.,,Ztratil jsem platební kartu,
Zablokuj kreditku,,Ztratil jsem platební kartu,
nechal jsem kreditku v obchode,,Ztratil jsem platební kartu,
někdo mi ukradl kartu!!!!!,,Ztratil jsem platební kartu,
platební karta,,Ztratil jsem platební kartu,
"platební karta se mi zlomila, potřebuji zažádat o novou",,Ztratil jsem platební kartu,
ukradli mi kreditku,,Ztratil jsem platební kartu,
zablokuj kreditku,,Ztratil jsem platební kartu,
zreatil jsem kartu,,Ztratil jsem platební kartu,
Chci videt seznam čekajícich plateb.,,Čekající platby,
rezervované platby,,Čekající platby,
výpis neprovedených plateb,,Čekající platby,
Výpis úroků z úvěru,,,Hledala jsem potvrzení o výši zaplacených úroků z úvěru.
dispoziční právo,,,Může mí k mému účtu přístup i jiná osoba?
Kdy bylo zadáno poslední SIPO,,,Na rozhraní výpis/SIPO
splátkový kalendář,,,Potřebuji mimořádnou splátku (hypotéky)
Zaplatit hypotéku,,,Potřebuji vykonat splátku hypotéky
Kolik eur dostanu za 1500kč?,,,Převod měn
Chci zrušit účet,,,Sjednat schůzku na pobočce
debetní karta,,,Splátka kreditní karty
Rozdělit poslední platbu na polovinu,,,"Vygenerovat QR kód podle poslední čekající platby, abych mi mohl kolega mohl poslat polovinu."
chci změnit kontaktní email na hello@world.com,,,Zmena kontaktných údajov
kreditní karta,,,Ztratil jsem platební kartu
Koupit kuře.,,,blbost
Vtip dne,,,easter egg - Nedal mi vtip dne :/ :P
Tohle je přepadení!,,,easter egg - Přepadení
"1=1; SELECT * FROM dual; --Ne nečekám že by prošlo, ale co kdyby ;-)",,,easter egg - Teeny-weeny SQL injection attempt  :-)
kolik mi zbývá doplatit na hypotéce?,,,hypoteka
Jak si mohu zvýšit kontokorent?,,,kontokorent
najít bankomat,,,nejblizsi bankomat
co umíš?,,,vylistuj moznosti
nový účet,,,zalozeni uctu
chci zalozit ucet,,,zalozit ucet
zalozit ucet,,,zalozit ucet
Jak zruším účet,,,zruseni uctu
kde najdu penzijní pojištění,,,žádná z uvedených možností
1+1,,,
chci změnit barvu pozadí internetbankingu,,,
heslo,,,
jake poplatky bych mel na kreditce?,,,
jaké doklady nutné přinést na pobočku k sjednání hypotéky?,,,
kolik plateb a v jake sume mě ještě čeká do konce měsíce?,,,
mám povolené platby kartou přes internet,,,
neco,,,
odložení splátky půjčky,,,
přidání disponenta k účtu,,,
změna trvalého bydliště,,,
