token,token_type,Chci půjčit/kolik mi půjčíte,Jednorázová platba tuzemská,Potřebuji mimořádnou splátku (hypotéky),Potřebuji potvrzení o platbě,Sjednat schůzku na pobočce,Splátka kreditní karty,Svolení k inkasu a SIPO,Trvalé platby,Výpisy,Ztratil jsem platební kartu,Čekající platby,Jednorázová Platba Zahraniční,Limity,PIN,Sjednat Hypotéku,sum
úvěr,KW,1.0,,1.0,,,1.0,,,,,,,,,,3.0
dej,KW,1.0,,1.0,,,,,,,,,,,,,2.0
možnost,KW,1.0,,1.0,,,,,,,,,,,,,2.0
povolit,KW,1.0,,,,,,2.0,,,,,,,,,3.0
pujck,KW,2.0,,,,,,,,,,,,,,,2.0
půčit,KW,2.0,,,,,,,,,,,,,,,2.0
založit,KW,2.0,,,,,,,,,,,,,,,2.0
půjčk,KW,3.0,2.0,,,,,,,,,,,,,,5.0
sjednat,KW,3.0,,,,6.0,,,,,,,,,,1.0,10.0
výše,KW,3.0,,,,,1.0,,,1.0,,,,,,1.0,6.0
velký,KW,3.0,,,,,,,,,,,,,,,3.0
peníze,KW,5.0,3.0,1.0,2.0,,,,,,,,,,,,11.0
mohu,KW,6.0,,1.0,,,,,,,,,,,,,7.0
kolik,SW,6.0,,,,,,,,8.0,,1.0,,3.0,,1.0,19.0
chtěl,KW,6.0,,,,,,,,,,,,,,,6.0
půjčka,KW,6.0,,,,,,,,,,,,,,,6.0
půjčku,KW,6.0,,,,,,,,,,,,,,,6.0
úvěr,KW,6.0,,,,,,,,,,,,,,,6.0
půjčit,KW,9.0,,,,,,,,,,,,,,,9.0
účtu,KW,,1.0,,,,,,1.0,9.0,,,,,,,11.0
zaslat,KW,,2.0,,1.0,,,,,,,,,,,,3.0
prikaz,KW,,2.0,,,,,,2.0,,,,,,,,4.0
dle,KW,,2.0,,,,,,,,,,,,,,2.0
fakturu,KW,,2.0,,,,,,,,,,,,,,2.0
nová,KW,,3.0,,,,,,,,,,,,,,3.0
prachy,KW,,3.0,,,,,,,,,,,,,,3.0
převeď,KW,,3.0,,,,,,,,,,,,,,3.0
převod,KW,,3.0,,,,,,,,,,,,,,3.0
zprávou,KW,,3.0,,,,,,,,,,,,,,3.0
zadat,KW,,4.0,,,,,2.0,4.0,,,,,,,,10.0
platba,KW,,5.0,,1.0,,,,2.0,,,,2.0,,,,10.0
platbu,KW,,5.0,,,,,1.0,8.0,,,1.0,1.0,2.0,,,18.0
spořící,KW,,5.0,,,,,,,,,,,,,,5.0
pošli,KW,,7.0,,,,,,,,,,,,,,7.0
zaplatit,KW,,10.0,1.0,,,3.0,1.0,1.0,,,,,,,,16.0
účet,KW,,13.0,,,,,1.0,6.0,,,,,,,,20.0
poslat,KW,,20.0,,,,,,,,,,1.0,,,,21.0
splátku,KW,,,1.0,,,2.0,,,,,,,,,,3.0
kreditky,KW,,,1.0,,,3.0,,,,,,,,,,4.0
hypotéku,KW,,,2.0,,1.0,,,,,,,,,,2.0,5.0
mimoradnou,KW,,,2.0,,,,,,,,,,,,,2.0
předčasné,KW,,,2.0,,,,,,,,,,,,,2.0
splacení,KW,,,2.0,,,,,,,,,,,,,2.0
splatku,KW,,,2.0,,,,,,,,,,,,,2.0
poslední,KW,,,,1.0,,,,,2.0,,,,,,,3.0
provedené,KW,,,,2.0,,,,,,,,,,,,2.0
transakci,KW,,,,2.0,,,,,,,,,,,,2.0
zaplacení,KW,,,,2.0,,,,,,,,,,,,2.0
doklad,KW,,,,6.0,,,,,,,,,,,,6.0
platbě,KW,,,,7.0,,,1.0,,,,,,,,,8.0
potvrzení,KW,,,,7.0,,,,,,,,,,,,7.0
domluvit,KW,,,,,2.0,,,,,,,,,,,2.0
osobní,KW,,,,,2.0,,,,,,,,,,,2.0
osobního,KW,,,,,2.0,,,,,,,,,,,2.0
potřeboval,KW,,,,,2.0,,,,,,,,,,,2.0
prijit,KW,,,,,2.0,,,,,,,,,,,2.0
schuzku,KW,,,,,2.0,,,,,,,,,,,2.0
sejít,KW,,,,,2.0,,,,,,,,,,,2.0
pobočka,KW,,,,,3.0,,,,,,,,,,,3.0
pobočku,KW,,,,,3.0,,,,,,,,,,,3.0
schůzka,KW,,,,,3.0,,,,,,,,,,,3.0
bankéřem,KW,,,,,4.0,,,,,,,,,,,4.0
schůzku,KW,,,,,4.0,,,,,,,,,,,4.0
termín,KW,,,,,4.0,,,,,,,,,,,4.0
nejbližší,KW,,,,,5.0,,,,,,,,,,,5.0
kartě,KW,,,,,,1.0,,,,,,,4.0,,,5.0
kartu,KW,,,,,,2.0,,,,11.0,,,,,,13.0
karty,KW,,,,,,3.0,,,,4.0,,,,1.0,,8.0
splatit,KW,,,,,,3.0,,,,,,,,,,3.0
kreditní,KW,,,,,,4.0,,,,,,,1.0,,,5.0
kreditku,KW,,,,,,8.0,,,,4.0,,,,,,12.0
plateb,KW,,,,,,,1.0,1.0,5.0,,2.0,,,,,9.0
nastavit,KW,,,,,,,1.0,3.0,,,,,,,,4.0
jaký,KW,,,,,,,1.0,,4.0,,,,2.0,,,7.0
běžné,KW,,,,,,,2.0,,,,,,,,,2.0
inkasu,KW,,,,,,,2.0,,,,,,,,,2.0
povolení,KW,,,,,,,2.0,,,,,,,,,2.0
sipo,KW,,,,,,,3.0,,,,,,,,,3.0
inkaso,KW,,,,,,,11.0,,,,,,,,,11.0
měsíc,KW,,,,,,,,1.0,6.0,,,,,,,7.0
výpis,KW,,,,,,,,1.0,9.0,,1.0,,,,,11.0
změnit,KW,,,,,,,,1.0,,,,,2.0,,,3.0
zobraz,KW,,,,,,,,2.0,1.0,,1.0,,,,,4.0
seznam,KW,,,,,,,,2.0,4.0,,1.0,,,,,7.0
každý,KW,,,,,,,,2.0,,,,,,,,2.0
naplanuj,KW,,,,,,,,2.0,,,,,,,,2.0
nájem,KW,,,,,,,,2.0,,,,,,,,2.0
roku,KW,,,,,,,,2.0,,,,,,,,2.0
trvaly,KW,,,,,,,,2.0,,,,,,,,2.0
platby,KW,,,,,,,,3.0,8.0,,9.0,1.0,,,,21.0
trvalou,KW,,,,,,,,3.0,,,,,,,,3.0
trvalých,KW,,,,,,,,3.0,,,,,,,,3.0
příkaz,KW,,,,,,,,5.0,,,,,,,,5.0
trvalý,KW,,,,,,,,5.0,,,,,,,,5.0
kartou,KW,,,,,,,,,1.0,,,,2.0,,,3.0
zobrazit,KW,,,,,,,,,2.0,,,,,1.0,,3.0
odchozí,KW,,,,,,,,,2.0,,,,,,,2.0
pohyby,KW,,,,,,,,,2.0,,,,,,,2.0
posledních,KW,,,,,,,,,2.0,,,,,,,2.0
příchozí,KW,,,,,,,,,2.0,,,,,,,2.0
splatek,KW,,,,,,,,,2.0,,,,,,,2.0
transakce,KW,,,,,,,,,2.0,,,,,,,2.0
uctu,KW,,,,,,,,,2.0,,,,,,,2.0
vypis,KW,,,,,,,,,2.0,,,,,,,2.0
výdaje,KW,,,,,,,,,2.0,,,,,,,2.0
zaplatil,KW,,,,,,,,,2.0,,,,,,,2.0
zustatek,KW,,,,,,,,,2.0,,,,,,,2.0
jsou,SW,,,,,,,,,2.0,,,,,,,2.0
historie,KW,,,,,,,,,3.0,,,,,,,3.0
účtě,KW,,,,,,,,,4.0,,,,,,,4.0
minulý,KW,,,,,,,,,6.0,,,,,,,6.0
zůstatek,KW,,,,,,,,,6.0,,,,,,,6.0
ztratil,KW,,,,,,,,,,2.0,,,,1.0,,3.0
kdyz,KW,,,,,,,,,,2.0,,,,,,2.0
nechal,KW,,,,,,,,,,2.0,,,,,,2.0
zablokuj,KW,,,,,,,,,,2.0,,,,,,2.0
ztráta,KW,,,,,,,,,,2.0,,,,,,2.0
asi,SW,,,,,,,,,,2.0,,,,,,2.0
karta,KW,,,,,,,,,,3.0,,,,,,3.0
ukradli,KW,,,,,,,,,,4.0,,,,,,4.0
platební,KW,,,,,,,,,,5.0,,,2.0,1.0,,8.0
zadané,KW,,,,,,,,,,,2.0,,,,,2.0
čekají,KW,,,,,,,,,,,2.0,,,,,2.0
zahraniční,KW,,,,,,,,,,,,3.0,,,,3.0
zvedni,KW,,,,,,,,,,,,,2.0,,,2.0
bankomatu,KW,,,,,,,,,,,,,3.0,,,3.0
limitu,KW,,,,,,,,,,,,,4.0,,,4.0
limit,KW,,,,,,,,,,,,,5.0,,,5.0
pin,KW,,,,,,,,,,,,,,4.0,,4.0
dostanu,KW,,,,,,,,,,,,,,,2.0,2.0
sazba,KW,,,,,,,,,,,,,,,2.0,2.0
sazbu,KW,,,,,,,,,,,,,,,2.0,2.0
úroková,KW,,,,,,,,,,,,,,,2.0,2.0
