kategorie,text_cz
aktivovat moji kartu,Chtěl bych požádat někoho z vašeho oddělení zákaznických služeb o pomoc s aktivací mé karty.
aktivovat moji kartu,Jak aktivuji kartu?
bezkontaktní platba nefunguje,"Již více než týden nemohu bezkontaktně platit kartou. Existuje způsob, jak tento problém vyřešit?"
bezkontaktní platba nefunguje,Platí se nějaké poplatky za novou kartu?
chci půjčit/kolik mi půjčíte,Chci půjčit 1200k kč na auto
chci půjčit/kolik mi půjčíte,Chci neúčelovou půjčku
délka doby převodu ,Kolik dní trvá převod?
délka doby převodu ,Jak dlouho trvá vykonání převodu?
jednorázová platba tuzemská,Převeď z běžného účtu 1584 korun na spořící účet
jednorázová platba tuzemská,Pošli 158 korun na 12-456456456/0420 za mekáč
karta nefunguje,Jak zprovozním svou kartu?
karta nefunguje,Má karta je nefunkční.
karta spolknuta,"Co mám dělat, když mi bankomat sežral kartu?"
karta spolknuta,Bankomat mi kartu nevrátil!
karta zneužita,"Jak zmrazím svou kartu? Myslím, že to někdo používá k provádění mnoha online transakcí."
karta zneužita,"Právě mi přišel e-mail s potvrzením nákupu kartou. Někdo evidentně ukradl informace o mé kartě a provedl podvodné nákupy."
limity jednorázových karet,"Zajímalo by mě, jaká jsou omezení pro jednorázové karty."
limity jednorázových karet,Jaký maximální počet transakcí mohu provést jednou kartou?
nerozpoznávám platbu kartou,"Aplikace zobrazuje platbu, kterou jsem neprovedl"
nerozpoznávám platbu kartou,"Dobrý den, právě jsem zkontroloval svůj výpis a zdá se, že došlo k platbě z mé karty, kterou jsem nikdy předtím neviděl."
nesprávná částka přijaté hotovosti z bankomatu,Neobdržel jsem správnou částku v hotovosti.
nesprávná částka přijaté hotovosti z bankomatu,"Dnes ráno jsem se pokusil vybrat nějaké peníze z bankomatu, ale nebyl jsem schopen získat částku v hotovosti, kterou jsem potřeboval. Částka v aplikaci říká, že to, co jsem se snažil vybrat, bylo odečteno, ale nemám žádné peníze. co s tím mám dělat?"
neúspěšný převod,"Co se děje? Už jsem 5x zkoušel převést peníze. Je systém mimo provoz? To by se nemělo stávat, protože se jedná o základní převod."
neúspěšný převod,Proč se můj převod nedokončil?
odhad času doručení karty,Je možné doručit kartu k určitému datu?
odhad času doručení karty,Jsou dodací dny karty flexibilní? Můj rozvrh mi umožňuje být k dispozici pouze v určitých dnech.
odmítnuta platba kartou,Moje karta byla při platbě odmítnuta
odmítnuta platba kartou,V obchodě jsem nemohl platit kartou
odmítnutý převod,Proč jsou mé převody odmítnuty?
odmítnutý převod,"Odmítnuto, převod nebyl dokončen."
odmítnutý výběr hotovosti,"Snažil jsem se získat peníze v hotovosti, ale bylo to odmítnuto!"
odmítnutý výběr hotovosti,Proč byl můj výběr hotovosti zamítnut?
ověřit zdroj financí,Odkud se vzal můj poslední vklad?
ověřit zdroj financí,Mohu sledovat historii příchozích transakcí?
platba inkasem nebyla rozpoznána,Proč je zřízeno inkaso na mé jméno?
platba inkasem nebyla rozpoznána,Neprovedl jsem platbu inkasem na svůj účet.
platba kartou špatný směnný kurz,"Zdá se, že směnný kurz pro mou platbu minulou sobotu byl špatný. Bylo mi účtováno něco extra."
platba kartou špatný směnný kurz,"Dnes jsem vyměnil ruské rubly za britské libry a dostal jsem méně, než jsem čekal. Byl směnný kurz správný?"
platnost karty brzy skončí,Mohu si novou kartu objednat telefonicky?
platnost karty brzy skončí,"Za měsíc vyprší platnost mé karty, musím žádat o další kartu?"
podpora bankomatu,Ve kterých bankomatech lze kartu použít?
podpora bankomatu,Jaké podporované bankomaty jsou poblíž?
podpora fiat měny,Jaká měna je podporována pro směny a držení?
podpora fiat měny,"Kdybych cestoval do zahraničí, mohl bych držet měny v eurech?"
podpora země,Vydáváte karty pro někoho žijícího v USA?
podpora země,mohou obyvatelé USA získat kartu?
poplatek navíc ve výpisu,Proč je ve výpisu uveden poplatek 50 korun navíc?
poplatek navíc ve výpisu,"Vidím, že mi bylo účtováno 10 kč za transakci."
poplatek za platbu kartou,jak se mohu v budoucnu vyhnout poplatkům
poplatek za platbu kartou,"Provedl jsem platbu kartou a byl mi účtován poplatek, proč byste to dělali"
poplatek za výběr hotovosti,"Neuvědomil jsem si, že za výběr peněz z mého účtu jsou nějaké poplatky – to se mi ještě nikdy nestalo. Jaké jsou přesně poplatky?"
poplatek za výběr hotovosti,"Dobrý den, náhodou jsem zkontroloval svůj transakční seznam a všiml si poplatku za výběr. Jak to mohu vyřešit, nevěděl jsem, že se za tento typ akce účtují poplatky."
potřebuji mimořádnou splátku (hypotéky),"Dobrý den, chci se zeptat umožňujete každý měsíc poslat na hypotéku něco navíc? nebo co nejčastěji. děkuji."
potřebuji mimořádnou splátku (hypotéky),"Zaplať 250000,- ze spořícího účtu na hypotéku"
potřebuji potvrzení o platbě,Vyhotovte dokument k dnešnímu bankovnímu převodu
potřebuji potvrzení o platbě,Opravdu jsem včera posílal peníze?
požadovat vrácení peněz,Chci vrátit peníze za zboží
požadovat vrácení peněz,Jak dostanu peníze zpět?
přijímání karet,"Je nějaké místo, kde nemohu použít svou kartu?"
přijímání karet,"Máte seznam firem, které přijímají tuto kartu?"
příchod karty,Proč moje karta ještě nepřišla?
příchod karty,"Existuje způsob, jak sledovat novou kartu, kterou jste mi poslali?"
příjemce neobdržel převod,Transakce příteli se stále nezobrazila.
příjemce neobdržel převod,Proč můj převod trvá tak dlouho?
příjemce převodu není povolen,Jaká jsou pravidla pro převod na příjemce?
příjemce převodu není povolen,Proč mi nebylo umožněno provést převod na příjemce?
sjednat hypotéku,Fixační doba už vypršela a přemýšlím jestli bychom si naši půjčku nepřevedli k vám
sjednat hypotéku,S manželkou máme rok po svatbě. chceme se osamostatnit.
sjednat schůzku na pobočce,Chci přijít osobně projednat přesun hypotéky
sjednat schůzku na pobočce,Nalezni mi nejbližší pobočku
směnný kurz,Jaké faktory určují váš směnný kurz?
směnný kurz,vysvětlit mezibankovní směnný kurz
splátka kreditní karty,Splatit kreditku v plné výši
splátka kreditní karty,Jaká je sazba za mou kreditku?
svolení k inkasu a sipo,Jak nastavím povolení k automatické platbě?
svolení k inkasu a sipo,Nastavit SIPO platbu ze všech mých stávajících inkaso plateb
transakce účtována dvakrát,Mám více poplatků za stejnou transakci.
transakce účtována dvakrát,"Obávám se, že za několik položek zakoupených za poslední týden jsou mi účtovány dvojnásobné poplatky. Prosím, zkontrolujte můj výrok a opravte ho."
trvalé platby,Chci vytvořit novy trvalý příkaz 500 kč na účet 123456789/0100
trvalé platby,Zobrazit výpis trvalých plateb
ukončit účet,Zrušte prosím můj účet. Jsem nespokojen s vašimi službami.
ukončit účet,"Vaše služby již nepovažuji za užitečné, jak smažu svůj účet?"
upravit osobní údaje,Moje adresa se změnila.
upravit osobní údaje,"Můžete mě provést, jak mohu upravit některé své osobní údaje?"
virtuální karta nefunguje,Proč je moje virtuální karta odmítnuta?
virtuální karta nefunguje,"Co mám dělat, když moje virtuální karta nefunguje."
visa nebo mastercard,"Mohu si vybrat, zda dostanu kartu Visa nebo Mastercard?"
visa nebo mastercard,Raději si pořídím Mastercard
vrácena platba kartou?,Moje platba nebyla přijata.
vrácena platba kartou?,"Zdá se, že moje platba kartou mohla být vrácena."
vrácení peněz se nezobrazuje,V mém výpisu chybí vrácení peněz
vrácení peněz se nezobrazuje,"Podle vašeho doporučení jsem požádal prodejce, aby mi vrátil peníze. Uplynul týden, ale od prodejce jsem nedostal žádnou zprávu. Sledujte prosím vrácení peněz u prodejce."
výpisy,Kolik mam úrok na spořícím účtu?
výpisy,Seznam všech plateb
věkový limit,Existuje možnost otevřít účet pro mé syny a dcery?
věkový limit,"Jak staré musí být děti, aby si otevřely účet?"
zablokovaný pin,Potřebuji odemknout svůj PIN.
zablokovaný pin,"Poté, co jsem mnohokrát zadal nesprávný PIN, byl jsem zablokován. Můžete mi pomoci s jeho změnou?"
zapomenuté přístupové heslo nebo kód,"Existuje způsob, jak obnovit své heslo?"
zapomenuté přístupové heslo nebo kód,Nemohu si vzpomenout na svůj přístupový kód.
změnit pin,Mohu změnit svůj PIN na dálku?
změnit pin,Musím jít do pobočky a změnit si PIN tam?
zrušit převod,Jak mohu zrušit převod?
zrušit převod,"Dnes ráno došlo k transakci, kterou bych chtěl vrátit zpět."
ztracená nebo odcizená karta,Jak nahlásím odcizenou kartu?
ztracená nebo odcizená karta,Ztratil jsem svou kartě
ztracený nebo odcizený telefon,"Mohu aplikaci nadále používat, i když jsem změnil telefon?"
ztracený nebo odcizený telefon,"Nemohu najít svůj telefon a bojím se, že ho někdo použije"
získat jednorázovou virtuální kartu,Jak mohu používat jednorázové karty?
získat jednorázovou virtuální kartu,Jak lze použít jednorázové karty?
získání náhradní karty,"Moje dcera potřebuje kartu. Mohu jí dát jednu ze svých, která je propojena s mým účtem?"
získání náhradní karty,"Mohu dostat jinou, náhradní kartu?"
získání virtuální karty,Existují virtuální karty?
získání virtuální karty,Jak se dostanu k virtuální kartě?
zůstatek není aktualizován po bankovním převodu,"Ahoj, před dvěma dny jsem provedl převod z Francie a myslel jsem, že už to bude tady. Můžete mi dát aktualizaci, prosím?"
zůstatek není aktualizován po bankovním převodu,Proč můj zůstatek neodráží můj převod?
zůstatek není aktualizován po šeku nebo vkladu hotovosti,"Měl jsem uložený šek, ale stále jsem neviděl hotovost."
zůstatek není aktualizován po šeku nebo vkladu hotovosti,"Jsou na můj účet přijímány šeky? Ten můj nevypadal, že přijel."
účtovaný poplatek za převod,"Nejsem si jistý, proč mi byl účtován příplatek za převod."
účtovaný poplatek za převod,"Převedl jsem peníze příjemci v rámci EU a obdržel nižší částku, než se očekávalo. Nyní budu muset příjemci poslat další peníze, abych vyrovnal rozdíl. Nevím co se pokazilo, můžete mi prosím poradit?"
čekající platba kartou,"Provedl jsem platbu kartou a ta již dlouho čeká. Můžete mi prosím říct, kdy se to zpracuje?"
čekající platba kartou,"Jak dlouho se platba obvykle zobrazuje jako nevyřízená? Je normální, že ta moje stále čeká?"
čekající převod,Snažím se převést peníze do jiné země. Pouze čeká a neodesílá se. Údaje o mém účtu jsou správné. Prosím pomozte mi.
čekající převod,Jak dlouho trvá převod?
čekající výběr hotovosti,Čekám na zobrazení výběru hotovosti v mých transakcích.
čekající výběr hotovosti,Stále čekám na zobrazení výběru hotovosti
špatný směnný kurz pro výběr hotovosti,Směnný kurz není pro můj výběr hotovosti správný.
špatný směnný kurz pro výběr hotovosti,"Mám dotaz ohledně bankomatových transakcí. Mohu si vybrat peníze z bankomatu, když cestuji do zahraničí? A mohu získat peníze ve své domácí měně?"
